sysbench 1.1.0-50966c8 (using bundled LuaJIT 2.1.0-beta3)

Running the test with following options:
Number of threads: 16
Initializing random number generator from current time


Initializing worker threads...

Threads started!

SQL statistics:
    queries performed:
        read:                            5218010
        write:                           1487042
        other:                           743802
        total:                           7448854
    transactions:                        371087 (1236.91 per sec.)
    queries:                             7448854 (24828.52 per sec.)
    ignored errors:                      1628   (5.43 per sec.)
    reconnects:                          0      (0.00 per sec.)

Throughput:
    events/s (eps):                      1236.9074
    time elapsed:                        300.0119s
    total number of events:              371087

Latency (ms):
         min:                                    7.84
         avg:                                   12.93
         max:                                   34.65
         95th percentile:                       15.00
         sum:                              4799596.09

Threads fairness:
    events (avg/stddev):           23192.9375/20.90
    execution time (avg/stddev):   299.9748/0.00

