sysbench 1.1.0-50966c8 (using bundled LuaJIT 2.1.0-beta3)

Running the test with following options:
Number of threads: 32
Initializing random number generator from current time


Initializing worker threads...

Threads started!

SQL statistics:
    queries performed:
        read:                            1971732
        write:                           554023
        other:                           277932
        total:                           2803687
    transactions:                        137094 (456.88 per sec.)
    queries:                             2803687 (9343.57 per sec.)
    ignored errors:                      3744   (12.48 per sec.)
    reconnects:                          0      (0.00 per sec.)

Throughput:
    events/s (eps):                      456.8794
    time elapsed:                        300.0661s
    total number of events:              137094

Latency (ms):
         min:                                   55.36
         avg:                                   70.03
         max:                                  376.17
         95th percentile:                      102.97
         sum:                              9600729.87

Threads fairness:
    events (avg/stddev):           4284.1875/16.54
    execution time (avg/stddev):   300.0228/0.02

