sysbench 1.0.14 (using bundled LuaJIT 2.1.0-beta2)

Running the test with following options:
Number of threads: 16
Initializing random number generator from current time


Initializing worker threads...

Threads started!

SQL statistics:
    queries performed:
        read:                            6877472
        write:                           1942727
        other:                           974915
        total:                           9795114
    transactions:                        483667 (1612.15 per sec.)
    queries:                             9795114 (32648.92 per sec.)
    ignored errors:                      7581   (25.27 per sec.)
    reconnects:                          0      (0.00 per sec.)

General statistics:
    total time:                          300.0119s
    total number of events:              483667

Latency (ms):
         min:                                    5.82
         avg:                                    9.92
         max:                                  142.55
         95th percentile:                       12.52
         sum:                              4799498.28

Threads fairness:
    events (avg/stddev):           30229.1875/1232.29
    execution time (avg/stddev):   299.9686/0.00

